GID,agriculture:Apple,agriculture:Melon,agriculture:Peach,agriculture:Pear,agriculture:Plum,agriculture:Watermelon,agriculture:Cucumber,agriculture:Pumpkin,agriculture:Cocoa,agriculture:Mango,agriculture:Avocado
AFG,34256.57142857143,44217.42857142857,15704.857142857143,3204.1428571428573,43879.857142857145,128026.14285714286,0.0,0.0,0.0,0.0,0.0
AGO,0.0,0.0,0.0,0.0,0.0,0.0,0.0,0.0,171.57142857142858,0.0,0.0
ALB,13070.57142857143,30200.0,3185.714285714286,2890.5714285714284,13357.714285714286,236285.7142857143,39328.57142857143,6328.571428571428,0.0,0.0,0.0
ARE,0.0,54698.857142857145,0.0,0.0,0.0,7976.857142857143,20355.0,31427.714285714286,0.0,8848.714285714286,0.0
ARG,1141946.2857142857,74610.28571428571,238147.2857142857,554524.8571428572,94808.28571428571,126006.28571428571,0.0,298293.0,0.0,1873.857142857143,3405.5714285714284
ARM,37186.0,0.0,14505.142857142857,14752.285714285714,9613.0,74856.71428571429,36121.142857142855,0.0,0.0,0.0,0.0
ATG,0.0,726.2857142857143,0.0,0.0,0.0,0.0,209.57142857142858,302.14285714285717,0.0,1371.142857142857,0.0
AUS,319276.28571428574,87735.71428571429,105610.0,147235.42857142858,29546.85714285714,90785.14285714286,15095.714285714286,105546.14285714286,0.0,35893.42857142857,26769.0
AUT,443560.14285714284,0.0,8300.0,119182.42857142857,59503.142857142855,318.0,41495.28571428572,11892.0,0.0,0.0,0.0
AZE,123820.14285714286,0.0,11091.57142857143,33412.57142857143,17161.714285714286,225866.85714285713,100282.0,2956.285714285714,0.0,0.0,0.0
BEL,401555.47285714286,0.0,0.0,147744.88571428572,1333.857142857143,0.0,25672.584285714285,21675.0,0.0,0.0,0.0
BEN,0.0,0.0,0.0,0.0,0.0,0.0,0.0,0.0,116.66666666666667,10622.0,0.0
BFA,0.0,0.0,0.0,0.0,0.0,0.0,0.0,0.0,0.0,7393.142857142857,0.0
BGD,0.0,89285.71428571429,0.0,0.0,0.0,0.0,20142.85714285714,196571.42857142858,0.0,195055.0,0.0
BGR,82732.57142857143,0.0,30311.14285714286,11484.57142857143,67248.71428571429,233620.57142857142,121558.85714285714,28267.0,0.0,0.0,0.0
BHR,0.0,118.28571428571429,0.0,0.0,0.0,53.0,328.0,492.42857142857144,0.0,0.0,0.0
BHS,0.0,0.0,0.0,0.0,0.0,0.0,0.0,0.0,0.0,0.0,0.0
BIH,20698.428571428572,0.0,2933.285714285714,9937.857142857143,45062.142857142855,35335.0,21077.5,0.0,0.0,0.0,0.0
BLR,199971.42857142858,0.0,0.0,38671.42857142857,23342.85714285714,0.0,176757.42857142858,0.0,0.0,0.0,0.0
BLZ,0.0,186.0,0.0,0.0,0.0,1577.0,151.0,430.0,46.142857142857146,1206.5714285714287,0.0
BOL,9629.285714285714,0.0,33412.71428571428,4065.4285714285716,4031.1428571428573,22209.285714285714,3257.4285714285716,99747.42857142857,4192.285714285715,7089.142857142857,6537.0
BRA,870177.8571428572,215122.42857142858,177625.7142857143,18144.428571428572,0.0,1058279.857142857,0.0,0.0,213002.85714285713,646969.4285714285,117953.0
BRB,0.0,298.0,0.0,0.0,0.0,0.0,1574.2857142857142,480.14285714285717,0.0,0.0,462.85714285714283
BRN,0.0,0.0,0.0,0.0,0.0,90.57142857142857,1647.142857142857,478.2857142857143,0.0,0.0,0.0
BTN,5787.428571428572,0.0,0.0,0.0,0.0,0.0,0.0,4000.0,0.0,0.0,0.0
BWA,0.0,0.0,0.0,0.0,0.0,0.0,0.0,0.0,0.0,0.0,0.0
CAF,0.0,0.0,0.0,0.0,0.0,0.0,0.0,24000.0,71.85714285714286,9487.142857142857,4414.285714285715
CAN,488397.0,9674.0,32909.142857142855,17386.714285714286,3529.8571428571427,1986.0,75174.57142857143,43291.142857142855,0.0,0.0,0.0
CHE,277631.85714285716,198.0,227.71428571428572,90887.71428571429,9684.0,0.0,8698.42857142857,6308.0,0.0,0.0,0.0
CHL,1047857.1428571428,62149.857142857145,264071.4285714286,237571.42857142858,191114.2857142857,72625.28571428571,24661.14285714286,110371.42857142857,0.0,0.0,103428.57142857143
CHN,19763386.85714286,6805349.142857143,4324997.857142857,8365950.857142857,3838930.0,49579139.85714286,21311262.57142857,3961243.285714286,0.0,3095096.285714286,67071.42857142857
CMR,0.0,33325.57142857143,524.8571428571429,0.0,322.85714285714283,26353.0,117171.57142857143,113552.71428571429,127496.0,467.85714285714283,49821.0
COD,0.0,0.0,0.0,0.0,0.0,0.0,290.7142857142857,30072.285714285714,6422.571428571428,206180.0,61570.57142857143
COG,0.0,0.0,0.0,0.0,0.0,0.0,0.0,0.0,1420.142857142857,23855.85714285714,5747.857142857143
COK,0.0,0.0,0.0,0.0,0.0,204.57142857142858,0.0,0.0,0.0,1793.857142857143,110.0
COL,6322.0,19526.85714285714,5139.0,11451.2,12814.4,54987.71428571428,6723.714285714285,39591.42857142857,42999.142857142855,137652.7142857143,133301.57142857142
COM,0.0,0.0,0.0,0.0,0.0,0.0,0.0,0.0,25.571428571428573,0.0,0.0
CPV,0.0,0.0,0.0,0.0,0.0,773.4285714285714,977.1428571428571,753.1428571428571,0.0,3554.5714285714284,0.0
CRI,0.0,174889.57142857142,0.0,0.0,0.0,69859.71428571429,742.8571428571429,0.0,767.0,24207.0,21583.14285714286
CUB,0.0,49299.71428571428,0.0,0.0,0.0,55721.142857142855,189601.57142857142,274336.28571428574,1828.7142857142858,197422.0,6444.0
CYM,0.0,0.0,0.0,0.0,0.0,0.0,0.0,44.57142857142857,0.0,37.285714285714285,12.714285714285714
CYP,10414.285714285714,10071.42857142857,3214.285714285714,988.5714285714286,1088.5714285714287,36642.857142857145,16100.0,4200.0,0.0,0.0,1045.7142857142858
CZE,243638.14285714287,0.0,6893.285714285715,16263.714285714286,18919.428571428572,0.0,37314.857142857145,0.0,0.0,0.0,0.0
DEU,1426118.857142857,0.0,579.0,55484.28571428572,47110.42857142857,0.0,206171.14285714287,28105.25,0.0,0.0,0.0
DJI,0.0,93.71428571428571,0.0,3.0,0.0,67.57142857142857,7.0,14.142857142857142,0.0,547.0,0.0
DMA,0.0,0.0,0.0,0.0,0.0,202.85714285714286,1631.4285714285713,817.8571428571429,203.28571428571428,1879.4285714285713,589.1428571428571
DNK,27128.571428571428,0.0,0.0,4328.571428571428,487.57142857142856,0.0,13460.0,0.0,0.0,0.0,0.0
DOM,0.0,59901.857142857145,0.0,0.0,0.0,0.0,8163.714285714285,25684.428571428572,44541.28571428572,139000.0,110869.0
DZA,98032.14285714286,0.0,57329.42857142857,83117.14285714286,26343.714285714286,484596.71428571426,53614.142857142855,95182.42857142857,0.0,0.0,0.0
ECU,14557.285714285714,13247.285714285714,14790.142857142857,11702.142857142857,8316.0,25791.571428571428,688.4285714285714,21885.714285714286,72873.57142857143,72710.0,21190.14285714286
EGY,458227.14285714284,629610.8571428572,319634.14285714284,41978.0,20916.571428571428,1639007.7142857143,537017.1428571428,676328.1428571428,0.0,281612.4285714286,0.0
ERI,0.0,0.0,0.0,0.0,0.0,0.0,0.0,0.0,0.0,0.0,0.0
ESP,859316.0,1041195.4285714285,1087205.0,687413.7142857143,174892.14285714287,696006.8571428572,472508.0,346668.5714285714,0.0,0.0,68838.42857142857
EST,13685.57142857143,0.0,0.0,0.0,1273.0,0.0,7225.285714285715,0.0,0.0,0.0,0.0
ETH,0.0,0.0,50.0,0.0,0.0,0.0,664.1428571428571,0.0,0.0,16505.166666666668,31030.25
FIN,3751.714285714286,0.0,0.0,0.0,0.0,0.0,42858.28571428572,1599.4285714285713,0.0,0.0,0.0
FJI,0.0,265.85714285714283,0.0,0.0,0.0,1829.5714285714287,994.2857142857143,1124.0,59.57142857142857,96.57142857142857,0.0
FRA,1949571.5714285714,290165.85714285716,422727.71428571426,235084.7142857143,215648.57142857142,7486.571428571428,127628.71428571429,56418.0,0.0,0.0,817.8571428571429
FSM,0.0,0.0,0.0,0.0,0.0,0.0,0.0,0.0,33.0,0.0,0.0
GAB,0.0,0.0,0.0,0.0,0.0,0.0,0.0,0.0,583.7142857142857,0.0,0.0
GBR,194428.57142857142,0.0,0.0,30128.571428571428,10800.0,0.0,78842.85714285714,0.0,0.0,0.0,0.0
GEO,100881.57142857143,0.0,12014.714285714286,32015.285714285714,18043.571428571428,83060.71428571429,58600.0,0.0,0.0,0.0,0.0
GHA,0.0,50.0,0.0,0.0,0.0,0.0,43.42857142857143,0.0,404257.5714285714,4437.285714285715,6807.285714285715
GIN,0.0,2832.1428571428573,0.0,0.0,0.0,0.0,0.0,0.0,5428.571428571428,111082.85714285714,0.0
GMB,0.0,0.0,0.0,0.0,0.0,0.0,0.0,0.0,0.0,629.0,0.0
GNB,0.0,0.0,0.0,0.0,0.0,0.0,0.0,0.0,0.0,4691.142857142857,0.0
GNQ,0.0,0.0,0.0,0.0,0.0,0.0,0.0,0.0,4029.8571428571427,0.0,0.0
GRC,287427.85714285716,177930.85714285713,756197.1428571428,81409.14285714286,6241.571428571428,689295.4285714285,163766.57142857142,737.2857142857143,0.0,0.0,1592.7142857142858
GRD,400.0,0.0,0.0,0.0,674.4285714285714,0.0,75.0,264.57142857142856,1054.142857142857,1835.857142857143,1564.142857142857
GTM,25519.428571428572,188942.57142857142,27966.285714285714,0.0,0.0,84829.57142857143,0.0,0.0,4534.857142857143,139150.2857142857,36463.142857142855
GUY,0.0,0.0,0.0,0.0,0.0,471.85714285714283,4945.857142857143,12816.142857142857,260.85714285714283,8437.285714285714,491.42857142857144
HKG,0.0,0.0,0.0,0.0,0.0,0.0,1918.0,219.42857142857142,0.0,0.0,0.0
HND,152.42857142857142,136074.57142857142,0.0,0.0,0.0,31177.14285714286,40889.42857142857,2708.714285714286,2100.0,10884.285714285714,829.0
HRV,53376.57142857143,0.0,7539.571428571428,6390.0,35405.28571428572,32683.14285714286,18095.714285714286,0.0,0.0,0.0,0.0
HTI,0.0,2634.1428571428573,0.0,0.0,0.0,0.0,0.0,381.57142857142856,4579.0,239878.57142857142,47143.71428571428
HUN,537259.4285714285,8477.857142857143,52065.71428571428,28810.285714285714,85751.14285714286,138616.42857142858,108910.71428571429,14487.714285714286,0.0,0.0,0.0
IDN,0.0,145532.516,0.0,0.0,0.0,249047.5735714286,457360.7917142857,116496.93671428572,489151.6257142857,1229624.4604285716,166852.928
IND,1274140.0,654607.2857142857,133515.0,189153.14285714287,79000.0,264732.28571428574,119663.42857142857,3472561.5714285714,6322.0,10617914.285714285,0.0
IRL,10785.714285714286,0.0,0.0,0.0,0.0,0.0,1942.857142857143,0.0,0.0,0.0,0.0
IRN,2197429.0,1518602.142857143,317258.0,185778.85714285713,94423.57142857143,2134329.5714285714,1322678.857142857,123520.42857142857,0.0,12541.857142857143,0.0
IRQ,74571.42857142857,202768.2857142857,19302.85714285714,17808.14285714286,5842.857142857143,528726.5714285715,387142.85714285716,50214.28571428572,0.0,0.0,0.0
ISL,0.0,0.0,0.0,0.0,0.0,0.0,872.5714285714286,0.0,0.0,0.0,0.0
ISR,114474.0,67891.42857142857,56059.71428571428,24343.428571428572,21168.85714285714,345871.4285714286,123162.85714285714,30114.285714285714,0.0,24634.285714285714,73504.85714285714
ITA,2162534.4285714286,526396.0,1492440.4285714286,848472.8571428572,158488.42857142858,540280.0,67000.85714285714,431963.28571428574,0.0,0.0,0.0
JAM,0.0,0.0,0.0,0.0,0.0,13793.285714285714,14641.857142857143,35176.0,1253.7142857142858,4172.857142857143,3353.0
JOR,36594.0,30954.85714285714,8424.42857142857,1202.2857142857142,3941.5714285714284,78752.14285714286,91717.28571428571,46295.42857142857,0.0,0.0,0.0
JPN,899757.1428571428,313285.71428571426,169357.14285714287,402171.4285714286,51757.142857142855,568685.7142857143,746442.8571428572,243485.7142857143,0.0,2070.0,0.0
KAZ,84454.71428571429,124950.0,2391.5714285714284,8554.285714285714,6270.571428571428,360848.5714285714,175892.2857142857,0.0,0.0,0.0,0.0
KEN,1035.5714285714287,0.0,352.42857142857144,6745.857142857143,4803.571428571428,4071.8571428571427,566.0,0.0,0.0,139731.85714285713,52748.42857142857
KGZ,89200.0,0.0,2100.0,7014.285714285715,3942.8571428571427,60578.57142857143,42136.42857142857,2050.8571428571427,0.0,0.0,0.0
KHM,0.0,0.0,0.0,0.0,0.0,0.0,0.0,0.0,0.0,36704.57142857143,0.0
KNA,0.0,0.0,0.0,0.0,0.0,86.14285714285714,91.42857142857143,0.0,0.0,0.0,0.0
KOR,470337.4285714286,285967.28571428574,166936.7142857143,317609.4285714286,54470.0,892014.1428571428,424824.71428571426,239536.42857142858,0.0,0.0,0.0
KWT,0.0,1103.2857142857142,0.0,0.0,0.0,363.0,30785.571428571428,5613.0,0.0,0.0,0.0
LAO,0.0,3385.714285714286,0.0,0.0,0.0,30437.14285714286,0.0,0.0,0.0,2585.714285714286,0.0
LBN,135207.14285714287,31642.85714285714,36108.28571428572,39044.28571428572,31418.714285714286,97628.57142857143,146706.14285714287,29700.0,0.0,0.0,4583.333333333333
LBR,0.0,0.0,0.0,0.0,0.0,0.0,0.0,0.0,1814.2857142857142,0.0,0.0
LBY,22468.714285714286,26245.85714285714,9485.285714285714,1225.5714285714287,32483.85714285714,237142.85714285713,15194.0,28614.571428571428,0.0,0.0,0.0
LCA,0.0,0.0,0.0,0.0,0.0,0.0,0.0,0.0,28.857142857142858,8373.714285714286,326.7142857142857
LKA,0.0,0.0,0.0,0.0,0.0,0.0,26283.571428571428,102682.0,3320.1428571428573,91711.42857142857,1701.857142857143
LTU,121470.42857142857,0.0,0.0,7789.428571428572,3636.714285714286,0.0,11702.857142857143,767.0,0.0,0.0,0.0
LUX,18062.670000000002,0.0,0.0,5284.828571428572,433.7142857142857,0.0,1920.6366666666665,0.0,0.0,0.0,0.0
LVA,41619.142857142855,0.0,0.0,1400.2857142857142,2249.5714285714284,0.0,10659.57142857143,2891.0,0.0,0.0,0.0
MAR,306772.14285714284,455076.4285714286,45970.857142857145,38809.142857142855,48314.28571428572,302205.0,34762.142857142855,117190.0,0.0,19.285714285714285,12657.142857142857
MDA,353829.4285714286,3547.1428571428573,13438.142857142857,9070.857142857143,47060.42857142857,33571.28571428572,32468.571428571428,18277.14285714286,0.0,0.0,0.0
MDG,6742.428571428572,0.0,7533.428571428572,1608.142857142857,1826.7142857142858,0.0,937.1428571428571,0.0,4360.714285714285,208285.7142857143,23250.571428571428
MDV,0.0,0.0,0.0,0.0,0.0,0.0,0.0,0.0,0.0,0.0,0.0
MEX,457838.71428571426,562058.8571428572,159360.2857142857,31929.571428571428,74372.57142857143,878398.0,449901.28571428574,513509.71428571426,43126.142857142855,1500656.857142857,881683.5714285715
MKD,65594.28571428571,631.0,6722.571428571428,8064.571428571428,20193.714285714286,125770.85714285714,24959.285714285714,0.0,0.0,0.0,0.0
MLI,0.0,0.0,0.0,0.0,0.0,253352.0,14685.42857142857,46557.28571428572,0.0,39908.28571428572,0.0
MLT,99.42857142857143,10457.142857142857,620.3333333333334,81.0,0.0,4064.1666666666665,770.3333333333334,1889.4285714285713,0.0,0.0,0.0
MMR,0.0,0.0,0.0,0.0,0.0,0.0,0.0,0.0,0.0,840.0,0.0
MNE,11338.002857142856,0.0,2855.8028571428576,3680.3914285714286,24144.01714285714,17896.45714285714,0.0,0.0,0.0,0.0,0.0
MNG,0.0,0.0,0.0,0.0,0.0,0.0,2057.1428571428573,0.0,0.0,0.0,0.0
MOZ,0.0,0.0,0.0,0.0,0.0,0.0,0.0,841.4285714285714,0.0,30871.428571428572,0.0
MRT,0.0,0.0,0.0,0.0,0.0,2271.4285714285716,0.0,0.0,0.0,0.0,0.0
MSR,0.0,0.0,0.0,0.0,0.0,0.0,72.85714285714286,0.0,0.0,130.14285714285714,0.0
MUS,0.0,0.0,0.0,0.0,0.0,0.0,9371.0,10876.714285714286,0.0,0.0,0.0
MWI,2095.4285714285716,0.0,3238.5714285714284,0.0,0.0,5470.428571428572,0.0,0.0,0.0,40857.142857142855,83310.71428571429
MYS,0.0,0.0,0.0,0.0,0.0,145000.0,48811.142857142855,4914.285714285715,70249.28571428571,21337.14285714286,0.0
NAM,0.0,592.5714285714286,0.0,0.0,0.0,2439.4285714285716,0.0,0.0,0.0,125.0,0.0
NCL,0.0,0.0,0.0,0.0,0.0,556.2857142857143,0.0,0.0,0.0,77.57142857142857,0.0
NER,0.0,2000.0,0.0,0.0,0.0,26248.428571428572,1188.6,10000.0,0.0,47500.0,0.0
NGA,0.0,0.0,0.0,0.0,0.0,0.0,0.0,0.0,334000.0,724408.2857142857,0.0
NIC,0.0,0.0,0.0,0.0,0.0,0.0,0.0,0.0,345.0,0.0,0.0
NLD,441428.5714285714,1714.2857142857142,0.0,147285.7142857143,5173.428571428572,0.0,440428.5714285714,11600.0,0.0,0.0,0.0
NOR,13286.42857142857,0.0,0.0,1092.5714285714287,1191.4285714285713,0.0,11845.42857142857,0.0,0.0,0.0,0.0
NPL,31409.0,0.0,12589.57142857143,29142.85714285714,8378.57142857143,0.0,0.0,0.0,0.0,122071.42857142857,0.0
NZL,537221.5714285715,3406.4285714285716,13595.285714285714,41110.57142857143,2075.714285714286,2642.8571428571427,329.0,150605.2857142857,0.0,0.0,9615.142857142857
OMN,0.0,0.0,0.0,0.0,0.0,27443.714285714286,2285.714285714286,0.0,0.0,10319.857142857143,0.0
PAK,427822.28571428574,284891.85714285716,50113.0,34886.142857142855,67866.42857142857,431605.0,7857.714285714285,248988.14285714287,0.0,963855.2857142857,0.0
PAN,0.0,29764.285714285714,0.0,0.0,0.0,22360.85714285714,2084.1428571428573,0.0,532.0,5929.857142857143,3153.8571428571427
PER,141824.7142857143,13006.0,35222.28571428572,6817.857142857143,6538.428571428572,61365.142857142855,18087.571428571428,96138.71428571429,22819.428571428572,158349.42857142858,84099.0
PHL,0.0,7406.142857142857,0.0,0.0,0.0,70223.42857142857,8927.142857142857,186563.85714285713,6793.285714285715,955311.0,38377.142857142855
PNG,0.0,0.0,0.0,0.0,0.0,0.0,0.0,146.85714285714286,39414.28571428572,0.0,0.0
POL,1981333.0,0.0,7097.8,76487.0,110844.14285714286,0.0,398151.0,23636.428571428572,0.0,0.0,0.0
PRI,0.0,1785.0,0.0,0.0,0.0,190.0,529.0,16036.142857142857,0.0,12908.285714285714,2181.1428571428573
PRK,649463.7142857143,110380.0,114719.0,128431.0,0.0,105841.14285714286,64695.42857142857,85478.42857142857,0.0,0.0,0.0
PRT,259163.2857142857,27531.285714285714,57892.0,134759.0,15667.142857142857,1299.857142857143,8343.857142857143,12013.142857142857,0.0,0.0,0.0
PRY,525.8571428571429,29042.571428571428,1353.7142857142858,203.0,1568.4285714285713,111716.0,0.0,7263.0,0.0,28972.571428571428,12290.285714285714
PSE,872.2857142857143,5961.857142857143,1168.4285714285713,130.0,11001.0,12145.42857142857,130525.85714285714,44526.857142857145,0.0,11872.714285714286,185.28571428571428
PYF,0.0,270.0,0.0,0.0,0.0,1170.2857142857142,842.2857142857143,133.14285714285714,0.0,0.0,78.14285714285714
QAT,0.0,3751.0,0.0,0.0,0.0,952.0,3907.5714285714284,6672.285714285715,0.0,0.0,0.0
REU,82.42857142857143,1543.2857142857142,531.2857142857143,0.0,0.0,309.14285714285717,0.0,1658.857142857143,0.0,3733.4285714285716,274.2857142857143
ROU,520574.85714285716,52953.0,16728.571428571428,73126.14285714286,499183.28571428574,613619.8571428572,120423.14285714286,419240.14285714284,0.0,0.0,0.0
RUS,1573142.857142857,0.0,29428.571428571428,65928.57142857143,137428.57142857142,692662.8571428572,994931.0,810374.4285714285,0.0,0.0,0.0
RWA,0.0,0.0,0.0,0.0,0.0,0.0,0.0,172923.7142857143,0.0,3750.0,3583.3333333333335
SAU,0.0,164300.85714285713,0.0,0.0,0.0,324102.85714285716,149667.0,88053.71428571429,0.0,0.0,0.0
SDN,0.0,33600.0,0.0,0.0,0.0,172428.57142857142,117428.57142857143,65720.42857142857,0.0,220285.7142857143,0.0
SEN,0.0,0.0,0.0,0.0,0.0,239464.42857142858,0.0,26913.0,0.0,78153.57142857143,0.0
SGP,0.0,0.0,0.0,0.0,0.0,0.0,0.2857142857142857,0.0,0.0,0.0,0.0
SLB,0.0,633.4285714285714,0.0,0.0,0.0,757.1428571428571,0.0,0.0,3086.285714285714,0.0,0.0
SLE,0.0,0.0,0.0,0.0,0.0,0.0,0.0,0.0,12131.42857142857,9285.714285714286,0.0
SLV,0.0,11928.57142857143,0.0,0.0,0.0,61691.57142857143,8285.714285714286,6524.6,151.71428571428572,18871.0,29117.428571428572
SOM,0.0,0.0,0.0,0.0,0.0,17446.714285714286,0.0,0.0,0.0,934.7142857142857,0.0
SRB,177628.71142857143,0.0,44740.91142857143,57659.46571428571,378256.2685714286,280377.8285714286,0.0,0.0,0.0,0.0,0.0
SSD,0.0,0.0,0.0,0.0,0.0,0.0,0.0,0.0,0.0,0.0,0.0
STP,0.0,0.0,0.0,0.0,0.0,0.0,0.0,0.0,3659.285714285714,0.0,0.0
SUR,0.0,0.0,0.0,0.0,0.0,2725.4285714285716,1760.5714285714287,0.0,9.714285714285714,1865.0,0.0
SVK,67989.14285714286,3940.714285714286,4812.0,7411.285714285715,13317.42857142857,17830.571428571428,34143.42857142857,21714.285714285714,0.0,0.0,0.0
SVN,105944.0,0.0,6995.142857142857,4578.428571428572,5689.142857142857,0.0,4181.571428571428,0.0,0.0,0.0,0.0
SWE,19188.571428571428,0.0,0.0,1536.7142857142858,488.0,0.0,33520.42857142857,0.0,0.0,0.0,0.0
SWZ,0.0,0.0,0.0,0.0,2182.4285714285716,0.0,0.0,0.0,0.0,123.14285714285714,240.0
SYC,0.0,0.0,0.0,0.0,0.0,0.0,0.0,0.0,0.0,28.857142857142858,13.285714285714286
SYR,296298.0,71163.57142857143,36886.57142857143,24411.571428571428,35250.142857142855,359542.5714285714,116071.14285714286,100219.57142857143,0.0,0.0,0.0
TCD,0.0,0.0,0.0,0.0,0.0,0.0,0.0,0.0,0.0,31258.14285714286,0.0
TGO,0.0,0.0,0.0,0.0,0.0,0.0,0.0,0.0,7771.428571428572,0.0,0.0
THA,0.0,0.0,0.0,0.0,0.0,420807.5714285714,249442.0,240115.7142857143,857.2857142857143,1536524.857142857,0.0
TJK,72471.42857142857,0.0,14085.714285714286,0.0,4871.428571428572,96929.28571428571,29074.285714285714,0.0,0.0,0.0,0.0
TKM,26300.0,0.0,10142.857142857143,0.0,12928.57142857143,224000.0,12971.42857142857,0.0,0.0,0.0,0.0
TLS,0.0,171.6776,0.0,0.0,0.0,204.397,309.8715,108.0886,227.3016666666667,2724.981416666667,575.1253333333333
TON,0.0,0.0,0.0,0.0,0.0,515.7142857142857,0.0,16587.714285714286,0.0,0.0,0.0
TTO,0.0,0.0,0.0,0.0,0.0,1595.857142857143,3249.285714285714,6579.428571428572,1285.857142857143,470.2857142857143,348.7142857142857
TUN,96642.85714285714,90142.85714285714,73857.14285714286,55414.28571428572,14042.857142857143,312428.5714285714,29100.0,34685.71428571428,0.0,0.0,236.16666666666666
TUR,2450000.0,1803285.7142857143,425714.28571428574,367142.85714285716,200000.0,4058857.1428571427,1649017.142857143,352428.5714285714,0.0,0.0,314.2857142857143
TZA,0.0,0.0,0.0,248.28571428571428,147.57142857142858,4419.0,0.0,0.0,3284.5714285714284,237146.85714285713,0.0
UGA,0.0,0.0,0.0,0.0,0.0,0.0,0.0,0.0,3457.1428571428573,0.0,0.0
UKR,754185.7142857143,44785.71428571428,25507.14285714286,148257.14285714287,114542.85714285714,317214.28571428574,655854.2857142857,911771.4285714285,0.0,0.0,0.0
URY,61932.42857142857,3156.285714285714,19916.285714285714,17527.85714285714,2744.0,15317.142857142857,0.0,22145.0,0.0,0.0,0.0
USA,4530072.428571428,1221720.0,1376073.7142857143,883747.0,678096.0,1773474.2857142857,1085180.5714285714,757620.0,0.0,2765.0,183478.57142857142
UZB,373257.14285714284,0.0,44128.57142857143,21114.285714285714,59428.57142857143,477642.85714285716,116042.85714285714,0.0,0.0,0.0,0.0
VCT,869.2857142857143,0.0,0.0,263.0,0.0,0.0,0.0,548.5714285714286,183.57142857142858,1330.5714285714287,0.0
VEN,0.0,140359.57142857142,18564.714285714286,0.0,0.0,214661.0,15357.857142857143,10062.5,16273.142857142857,108512.28571428571,44938.71428571428
VNM,0.0,0.0,0.0,0.0,0.0,259741.0,0.0,0.0,0.0,195300.0,0.0
VUT,0.0,0.0,0.0,0.0,0.0,0.0,0.0,0.0,1310.4285714285713,0.0,0.0
WSM,0.0,0.0,0.0,0.0,0.0,0.0,0.0,0.0,495.14285714285717,4289.285714285715,921.4285714285714
YEM,2445.8571428571427,35931.0,2683.0,295.85714285714283,0.0,86227.71428571429,13780.714285714286,6975.285714285715,0.0,68099.0,0.0
ZAF,628086.8571428572,25092.285714285714,210325.0,295034.28571428574,42465.57142857143,58573.28571428572,15233.714285714286,317260.85714285716,0.0,50861.42857142857,67639.0
ZMB,0.0,0.0,0.0,0.0,0.0,0.0,0.0,0.0,0.0,0.0,0.0
ZWE,6294.428571428572,270.42857142857144,796.4285714285714,264.85714285714283,195.28571428571428,0.0,402.2857142857143,0.0,0.0,872.2857142857143,829.4285714285714
