{
  "urn" : "local:angel.gimenez:nca.pollination.india:earth_data.lentil_dataquality_harvestedarea",
  "version" : "0.0.1",
  "adapterType" : "wcs",
  "localPath" : "nca.pollination.india/resources/earth_data.lentil_dataquality_harvestedarea",
  "geometry" : "S2(4319,2159){bbox=[-180.0 179.99999999997954 -90.0 89.99999999998977],proj=EPSG:4326}",
  "projectName" : "nca.pollination.india",
  "localName" : "earth_data.lentil_dataquality_harvestedarea",
  "type" : "NUMBER",
  "resourceTimestamp" : 1625228433904,
  "metadata" : { },
  "parameters" : {
    "wcsIdentifier" : "earth_data__lentil_dataquality_harvestedarea",
    "transform" : "",
    "serviceUrl" : "http://192.168.250.122:8600/geoserver/ows",
    "wcsVersion" : "2.0.1"
  },
  "localPaths" : [ ],
  "history" : [ ],
  "notifications" : [ ],
  "attributes" : [ ],
  "spatialExtent" : {
    "east" : 179.99999999997954,
    "west" : -180.0,
    "north" : 89.99999999998977,
    "south" : -90.0,
    "gridResolution" : null,
    "gridUnit" : null
  },
  "dependencies" : null,
  "outputs" : null,
  "categorizables" : [ ],
  "exportFormats" : { }
}